{
    "KPlugin": {
        "Description": "Monitors directories for changes",
        "Description[ar]": "يراقب تغييرات الأدلة",
        "Description[az]": "Qovluqdakı dəyişiklikləri izləyir",
        "Description[ca@valencia]": "Controla els canvis en els directoris",
        "Description[ca]": "Controla els canvis en els directoris",
        "Description[cs]": "Monitoruje změny v adresáři",
        "Description[de]": "Überwacht Ordner auf Änderungen",
        "Description[en_GB]": "Monitors directories for changes",
        "Description[es]": "Monitoriza cambios en directorios",
        "Description[eu]": "Direktorioetako aldaketak behatzen ditu",
        "Description[fi]": "Tarkkailee kansioiden muutoksia",
        "Description[fr]": "Surveille les changements de dossiers",
        "Description[hu]": "Mappák változásainak figyelése",
        "Description[ia]": "Il monitora le directorios pro variationes",
        "Description[id]": "Memantau direktori terhadap perubahan",
        "Description[it]": "Sorveglia i cambiamenti nelle cartelle",
        "Description[ko]": "디렉터리 변경 사항을 감시합니다",
        "Description[lt]": "Stebi pakeitimus kataloguose",
        "Description[nl]": "Mappen monitoren op wijzigingen",
        "Description[nn]": "Overvaker mapper for endringar",
        "Description[pa]": "ਬਦਲਣ ਲਈ ਮਾਨੀਟਰਾਂ ਦੀਆਂ ਦਿਸ਼ਾਵਾਂ",
        "Description[pl]": "Monitoruje katalogi w poszukiwaniu zmian",
        "Description[pt]": "Vigia modificações nas pastas",
        "Description[pt_BR]": "Monitora as alterações nas pastas",
        "Description[ro]": "Monitorizează dosare pentru modificări",
        "Description[ru]": "Наблюдение за изменениями в каталогах",
        "Description[sk]": "Sleduje zmeny v adresároch",
        "Description[sl]": "Nadzira spremembe v mapah",
        "Description[sv]": "Övervakar om kataloger ändras",
        "Description[ta]": "அடைவுகளில் மாற்றங்கள் உள்ளனவா என்று கண்காணிக்கும்",
        "Description[tr]": "Dizinleri değişiklikler için izler",
        "Description[uk]": "Веде спостереження за змінами у каталогах",
        "Description[vi]": "Giám sát thay đổi ở các thư mục",
        "Description[x-test]": "xxMonitors directories for changesxx",
        "Description[zh_CN]": "监视目录的更改",
        "Name": "Directory Watcher",
        "Name[ar]": "مراقب الأدلة",
        "Name[ast]": "Supervisor de direutorios",
        "Name[az]": "Qovluqlara nəzarət",
        "Name[ca@valencia]": "Vigilant de directori",
        "Name[ca]": "Vigilant de directori",
        "Name[cs]": "Sledovač adresářů",
        "Name[da]": "Mappeovervåger",
        "Name[de]": "Ordnerüberwachung",
        "Name[el]": "Επόπτης φακέλων",
        "Name[en_GB]": "Directory Watcher",
        "Name[es]": "Vigilante de directorios",
        "Name[et]": "Kataloogijälgija",
        "Name[eu]": "Direktorio-behatzailea",
        "Name[fi]": "Kansion tarkkailija",
        "Name[fr]": "Surveillant de dossier",
        "Name[gl]": "Vixilante de directorios",
        "Name[he]": "צופה תיקיות",
        "Name[hi]": "डिरेक्ट्री प्रहरी",
        "Name[hsb]": "Wobkedźbowanje zapiskow",
        "Name[hu]": "Mappafigyelő",
        "Name[ia]": "Observator de Directorio",
        "Name[id]": "Penonton Direktori",
        "Name[is]": "Möppuskoðunartól",
        "Name[it]": "Sorveglianza delle cartelle",
        "Name[ja]": "ディレクトリウォッチャ",
        "Name[ka]": "საქაღალდის მაყურებელი",
        "Name[ko]": "디렉터리 감시기",
        "Name[lt]": "Katalogų stebėtojas",
        "Name[lv]": "Mapju novērotājs",
        "Name[ml]": "ഡയറക്ടറി നിരീക്ഷകൻ",
        "Name[nl]": "Mappenbewaker",
        "Name[nn]": "Mappeovervaking",
        "Name[pa]": "ਡਾਇਰੈਕਟਰੀ ਨਿਗਰਾਨ",
        "Name[pl]": "Monitorowanie katalogów",
        "Name[pt]": "Monitorização de Pastas",
        "Name[pt_BR]": "Monitor de pastas",
        "Name[ro]": "Urmăritor de dosare",
        "Name[ru]": "Наблюдение за каталогом",
        "Name[sk]": "Sledovač adresárov",
        "Name[sl]": "Opazovalnik map",
        "Name[sr@ijekavian]": "Надзорник фасцикли",
        "Name[sr@ijekavianlatin]": "Nadzornik fascikli",
        "Name[sr@latin]": "Nadzornik fascikli",
        "Name[sr]": "Надзорник фасцикли",
        "Name[sv]": "Katalogövervakare",
        "Name[ta]": "அடைவு கண்காணி",
        "Name[tr]": "Dizin İzleyici",
        "Name[uk]": "Спостереження за каталогами",
        "Name[vi]": "Trình theo dõi thư mục",
        "Name[x-test]": "xxDirectory Watcherxx",
        "Name[zh_CN]": "目录监视器",
        "Name[zh_TW]": "目錄監控器"
    },
    "X-KDE-FactoryName": "desktopnotifier",
    "X-KDE-Kded-autoload": false,
    "X-KDE-Kded-load-on-demand": true
}
